<?xml version="1.0" encoding="ISO-8859-1"?>
<svg>
	<path fill="none" stroke="#000000" d=" M 112.319 -0.518915  L 122.399 -0.565485 L 131.709 3.65191 L 130.138 20.6118 L 120.211 23.0466 L 110.311 21.1486 L 104.922 40.0904 L 114.338 43.6882 L 121.496 50.9842 L 113.904 66.2311 L 103.768 64.9154 L 95.2222 59.5694 L 83.3542 75.2852 L 90.8347 82.0416 L 94.8741 91.4308 L 82.2869 102.906 L 73.3104 98.017 L 67.2731 89.9451 L 50.5293 100.312 L 55.064 109.315 L 55.4389 119.529 L 39.5565 125.682 L 32.9521 117.881 L 30.2384 108.173 L 10.8802 111.792 L 11.8566 121.824 L 8.51628 131.484 L -8.51628 131.484 L -11.8566 121.824 L -10.8802 111.792 L -30.2384 108.173 L -32.9521 117.881 L -39.5565 125.682 L -55.4389 119.529 L -55.064 109.315 L -50.5293 100.312 L -67.2731 89.9451 L -73.3104 98.017 L -82.2869 102.906 L -94.8741 91.4308 L -90.8347 82.0416 L -83.3542 75.2852 L -95.2222 59.5694 L -103.768 64.9154 L -113.904 66.2311 L -121.496 50.9842 L -114.338 43.6882 L -104.922 40.0904 L -110.311 21.1486 L -120.211 23.0466 L -130.138 20.6118 L -131.709 3.65191 L -122.399 -0.565484 L -112.319 -0.518915 L -110.502 -20.1284 L -120.419 -21.9348 L -128.796 -27.7913 L -124.135 -44.1736 L -113.929 -44.7428 L -104.547 -41.0581 L -95.7685 -58.687 L -104.363 -63.9538 L -110.059 -72.441 L -99.7947 -86.0332 L -90.0728 -82.8774 L -82.655 -76.0522 L -68.1013 -89.3196 L -74.213 -97.3355 L -76.4583 -107.307 L -61.977 -116.274 L -54.0516 -109.819 L -49.6003 -100.775 L -31.2366 -107.889 L -34.0399 -117.571 L -32.5315 -127.681 L -15.7889 -130.811 L -10.7305 -121.929 L -9.84677 -111.888 L 9.84677 -111.888 L 10.7305 -121.929 L 15.7889 -130.811 L 32.5315 -127.681 L 34.0399 -117.571 L 31.2366 -107.889 L 49.6003 -100.775 L 54.0516 -109.819 L 61.977 -116.274 L 76.4583 -107.307 L 74.213 -97.3355 L 68.1013 -89.3196 L 82.655 -76.0522 L 90.0728 -82.8774 L 99.7947 -86.0332 L 110.059 -72.441 L 104.363 -63.9538 L 95.7685 -58.687 L 104.547 -41.0581 L 113.929 -44.7428 L 124.135 -44.1736 L 128.796 -27.7913 L 120.419 -21.9348 L 110.502 -20.1284 z"/>
	<circle fill="none" stroke="#000000" cx="0" cy="0" r="5.904"/>
</svg>
